{
    "key": "group_5b2b9cbe19dd6",
    "title": "Product Tiles Back Up",
    "fields": [
        {
            "key": "field_5b2b9cc8bd244",
            "label": "Label",
            "name": "label",
            "type": "text",
            "instructions": "",
            "required": 0,
            "conditional_logic": 0,
            "wrapper": {
                "width": "",
                "class": "",
                "id": ""
            },
            "default_value": "",
            "placeholder": "",
            "prepend": "",
            "append": "",
            "maxlength": ""
        },
        {
            "key": "field_5b2b9d4abd245",
            "label": "URL",
            "name": "url",
            "type": "url",
            "instructions": "",
            "required": 1,
            "conditional_logic": 0,
            "wrapper": {
                "width": "",
                "class": "",
                "id": ""
            },
            "default_value": "",
            "placeholder": ""
        },
        {
            "key": "field_5b2b9d56bd246",
            "label": "BackUp Images",
            "name": "backup_images",
            "type": "gallery",
            "instructions": "These are the images that will be used as BackUp for out of stock products on the Posts that have this BackUp Category.\r\nMust be 300 by 540px",
            "required": 1,
            "conditional_logic": 0,
            "wrapper": {
                "width": "",
                "class": "",
                "id": ""
            },
            "min": "",
            "max": "",
            "insert": "append",
            "library": "all",
            "min_width": 300,
            "min_height": 540,
            "min_size": "",
            "max_width": 300,
            "max_height": 540,
            "max_size": "",
            "mime_types": ""
        }
    ],
    "location": [
        [
            {
                "param": "post_type",
                "operator": "==",
                "value": "product_tiles_backup"
            }
        ]
    ],
    "menu_order": 0,
    "position": "normal",
    "style": "default",
    "label_placement": "top",
    "instruction_placement": "label",
    "hide_on_screen": [
        "permalink",
        "the_content",
        "excerpt",
        "custom_fields",
        "discussion",
        "comments",
        "revisions",
        "slug",
        "author",
        "format",
        "page_attributes",
        "featured_image",
        "categories",
        "tags",
        "send-trackbacks"
    ],
    "active": 1,
    "description": "",
    "modified": 1530179503
}